Manipulating, analyzing and exporting data with the tidyverse
…
You may also have noticed that the output from these calls doesn’t run off the screen anymore. It’s one of the advantages of tbl_df over data frame.

You can also group by multiple columns:

## `summarise()` regrouping output by 'sex' (override with `.groups` argument)

When grouping both by sex and species_id, the last few rows are for animals that escaped before their sex and body weights could be determined. You may notice that the last column does not contain NA but NaN (which refers to “Not a Number”). To avoid this, we can remove the missing values for weight before we attempt to calculate the summary statistics on weight. Because the missing values are removed first, we can omit na.rm = TRUE when computing the mean:

## `summarise()` regrouping output by 'sex' (override with `.groups` argument)

Here, again, the output from these calls doesn’t run off the screen anymore. If you want to display more data, you can use the print() function at the end of your chain with the argument n specifying the number of rows to display:

## `summarise()` regrouping output by 'sex' (override with `.groups` argument)

## # A tibble: 64 x 3
## # Groups:   sex [3]
##    sex   species_id mean_weight
##    <chr> <chr>            <dbl>
##  1 F     BA                9.16
##  2 F     DM               41.6 
##  3 F     DO               48.5 
##  4 F     DS              118.  
##  5 F     NL              154.  
##  6 F     OL               31.1 
##  7 F     OT               24.8 
##  8 F     OX               21   
##  9 F     PB               30.2 
## 10 F     PE               22.8 
## 11 F     PF                7.97
## 12 F     PH               30.8 
## 13 F     PL               19.3 
## 14 F     PM               22.1 
## 15 F     PP               17.2 
## # ... with 49 more rows
…
