…
```r
## Preview the data (opens a spreadsheet-like interface in RStudio)
View(surveys)
```


```
## # A tibble: 11,332 x 9
##    record_id month   day  year plot_id species_id sex   hindfoot_length weight
##        <dbl> <dbl> <dbl> <dbl>   <dbl> <chr>      <chr>           <dbl>  <dbl>
##  1     23215     1    27  1996      21 PF         F                  16      7
##  2     23216     1    27  1996       1 DM         M                  NA     27
##  3     23217     1    27  1996      17 DM         M                  36     25
##  4     23218     1    27  1996      17 DM         <NA>               37     NA
##  5     23220     1    27  1996       2 DM         F                  36     47
##  6     23221     1    27  1996      18 PF         F                  NA      9
##  7     23222     1    27  1996       1 DM         M                  34     27
##  8     23223     1    27  1996       2 DO         M                  37     66
##  9     23224     1    27  1996      17 DM         F                  39     49
## 10     23225     1    27  1996       2 DM         M                  40     54
## # ... with 11,322 more rows
```
…
This will select all the variables in `surveys` except `record_id`
and `species_id`.

To choose rows based on a specific criteria, use `filter()`:


```r
filter(surveys, year == 1999)
```

```
## # A tibble: 1,064 x 9
##    record_id month   day  year plot_id species_id sex   hindfoot_length weight
##        <dbl> <dbl> <dbl> <dbl>   <dbl> <chr>      <chr>           <dbl>  <dbl>
##  1     29024     1    16  1999       1 DM         F                  33     41
##  2     29025     1    16  1999       1 DM         F                  35     52
##  3     29026     1    16  1999       1 DM         M                  35     52
##  4     29027     1    16  1999       1 DO         M                  36     55
##  5     29028     1    16  1999       1 DO         F                  33     53
##  6     29029     1    16  1999       2 DO         M                  36     50
##  7     29030     1    16  1999       2 OT         M                  20     22
##  8     29031     1    16  1999       2 OT         M                  20     26
##  9     29032     1    16  1999       2 DO         F                  34     46
## 10     29033     1    16  1999       2 DO         F                  35     51
## # ... with 1,054 more rows
```

In the code above `==` keeps all rows where the year is 1999. 

Other filtering options include `!=`, which keeps all rows that are **not** a certain criteria, `,` which means **"and"**, and `|` which means **"or"**. Filter can also do `<` for "less than", `>` for "greater than", `<=` for "less than or equal to", and `>=` for "greater than or equal to". We type these last two options the same way we would typically say them.

1.  `!=` example: 

    
    ```r
    filter(surveys, year != 1999)
    ```
    
    ```
    ## # A tibble: 10,268 x 9
    ##    record_id month   day  year plot_id species_id sex   hindfoot_length weight
    ##        <dbl> <dbl> <dbl> <dbl>   <dbl> <chr>      <chr>           <dbl>  <dbl>
    ##  1     23215     1    27  1996      21 PF         F                  16      7
    ##  2     23216     1    27  1996       1 DM         M                  NA     27
    ##  3     23217     1    27  1996      17 DM         M                  36     25
    ##  4     23218     1    27  1996      17 DM         <NA>               37     NA
    ##  5     23220     1    27  1996       2 DM         F                  36     47
    ##  6     23221     1    27  1996      18 PF         F                  NA      9
    ##  7     23222     1    27  1996       1 DM         M                  34     27
    ##  8     23223     1    27  1996       2 DO         M                  37     66
    ##  9     23224     1    27  1996      17 DM         F                  39     49
    ## 10     23225     1    27  1996       2 DM         M                  40     54
    ## # ... with 10,258 more rows
    ```
    
    The code above keeps all rows where the year is not 1999. 
    
2.  `,` example:
    
    
    ```r
    filter(surveys, year == 1999 , plot_id == 2)
    ```
    
    ```
    ## # A tibble: 57 x 9
    ##    record_id month   day  year plot_id species_id sex   hindfoot_length weight
    ##        <dbl> <dbl> <dbl> <dbl>   <dbl> <chr>      <chr>           <dbl>  <dbl>
    ##  1     29029     1    16  1999       2 DO         M                  36     50
    ##  2     29030     1    16  1999       2 OT         M                  20     22
    ##  3     29031     1    16  1999       2 OT         M                  20     26
    ##  4     29032     1    16  1999       2 DO         F                  34     46
    ##  5     29033     1    16  1999       2 DO         F                  35     51
    ##  6     29034     1    16  1999       2 OT         F                  20     25
    ##  7     29035     1    16  1999       2 PE         M                  20     18
    ##  8     29036     1    16  1999       2 DM         M                  36     44
    ##  9     29037     1    16  1999       2 DM         M                  37     47
    ## 10     29039     1    16  1999       2 NL         F                  34    162
    ## # ... with 47 more rows
    ```
    
    The code above keeps all rows where the year is 1999 for plot id 2, i.e., year 1999 and plot 2. The rows meet **both** of these criteria. 
    

3.  `|` example:

    
    ```r
    filter(surveys, year == 1999 | plot_id == 2)
    ```
    
    ```
    ## # A tibble: 1,743 x 9
    ##    record_id month   day  year plot_id species_id sex   hindfoot_length weight
    ##        <dbl> <dbl> <dbl> <dbl>   <dbl> <chr>      <chr>           <dbl>  <dbl>
    ##  1     23220     1    27  1996       2 DM         F                  36     47
    ##  2     23223     1    27  1996       2 DO         M                  37     66
    ##  3     23225     1    27  1996       2 DM         M                  40     54
    ##  4     23234     1    27  1996       2 DM         F                  35     45
    ##  5     23237     1    27  1996       2 DM         M                  35     46
    ##  6     23239     1    27  1996       2 PB         M                  29     46
    ##  7     23242     1    27  1996       2 DO         M                  36     54
    ##  8     23243     1    27  1996       2 DM         M                  36     49
    ##  9     23257     1    27  1996       2 DM         M                  36     50
    ## 10     23258     1    27  1996       2 PE         M                  20     25
    ## # ... with 1,733 more rows
    ```
    
    The code above keeps all rows where the year is 1999 **or** is plot id 2, i.e., year 1999 or plot 2. The rows meet **either** of these criteria but not both. 
    

4.  `<` example:

    
    ```r
    filter(surveys, weight < 8)
    ```
    
    ```
    ## # A tibble: 163 x 9
    ##    record_id month   day  year plot_id species_id sex   hindfoot_length weight
    ##        <dbl> <dbl> <dbl> <dbl>   <dbl> <chr>      <chr>           <dbl>  <dbl>
    ##  1     23215     1    27  1996      21 PF         F                  16      7
    ##  2     23240     1    27  1996      20 PF         M                  15      6
    ##  3     23250     1    27  1996      21 PF         M                  15      6
    ##  4     23271     1    28  1996      13 PF         F                  16      7
    ##  5     23283     1    28  1996       3 PF         M                  15      5
    ##  6     23317     1    28  1996       6 PF         M                  15      7
    ##  7     23330     1    28  1996       6 PF         F                  15      7
    ##  8     23334     1    28  1996       9 PF         M                  17      7
    ##  9     23380     2    24  1996      12 PF         F                  14      7
    ## 10     23436     2    25  1996       5 PF         F                  16      7
    ## # ... with 153 more rows
    ```
    
    The code above keeps all rows where weight is less than 8. 
    

5.  `>` example:

    
    ```r
    filter(surveys, hindfoot_length > 30)
    ```
    
    ```
    ## # A tibble: 3,828 x 9
    ##    record_id month   day  year plot_id species_id sex   hindfoot_length weight
    ##        <dbl> <dbl> <dbl> <dbl>   <dbl> <chr>      <chr>           <dbl>  <dbl>
    ##  1     23217     1    27  1996      17 DM         M                  36     25
    ##  2     23218     1    27  1996      17 DM         <NA>               37     NA
    ##  3     23220     1    27  1996       2 DM         F                  36     47
    ##  4     23222     1    27  1996       1 DM         M                  34     27
    ##  5     23223     1    27  1996       2 DO         M                  37     66
    ##  6     23224     1    27  1996      17 DM         F                  39     49
    ##  7     23225     1    27  1996       2 DM         M                  40     54
    ##  8     23227     1    27  1996      12 DM         <NA>               39     NA
    ##  9     23230     1    27  1996      17 DM         M                  36     51
    ## 10     23231     1    27  1996      22 DM         F                  36     43
    ## # ... with 3,818 more rows
    ```
…
Frequently you'll want to create new columns based on the values in existing
columns, for example to do unit conversions, or to find the ratio of values in 
two columns. For this we'll use `mutate()`.

To create a new column of weight in kg from weight in grams:


```r
surveys %>%
  mutate(weight_kg = weight / 1000)
```

```
## # A tibble: 11,332 x 10
##    record_id month   day  year plot_id species_id sex   hindfoot_length weight
##        <dbl> <dbl> <dbl> <dbl>   <dbl> <chr>      <chr>           <dbl>  <dbl>
##  1     23215     1    27  1996      21 PF         F                  16      7
##  2     23216     1    27  1996       1 DM         M                  NA     27
##  3     23217     1    27  1996      17 DM         M                  36     25
##  4     23218     1    27  1996      17 DM         <NA>               37     NA
##  5     23220     1    27  1996       2 DM         F                  36     47
##  6     23221     1    27  1996      18 PF         F                  NA      9
##  7     23222     1    27  1996       1 DM         M                  34     27
##  8     23223     1    27  1996       2 DO         M                  37     66
##  9     23224     1    27  1996      17 DM         F                  39     49
## 10     23225     1    27  1996       2 DM         M                  40     54
## # ... with 11,322 more rows, and 1 more variable: weight_kg <dbl>
```

You can also create a second new column based on the first new column within the
same call of `mutate()`:




```r
surveys %>%
  mutate(weight_kg = weight / 1000,
         weight_lb = weight_kg * 2.2)
```

```
## # A tibble: 11,332 x 11
##    record_id month   day  year plot_id species_id sex   hindfoot_length weight
##        <dbl> <dbl> <dbl> <dbl>   <dbl> <chr>      <chr>           <dbl>  <dbl>
##  1     23215     1    27  1996      21 PF         F                  16      7
##  2     23216     1    27  1996       1 DM         M                  NA     27
##  3     23217     1    27  1996      17 DM         M                  36     25
##  4     23218     1    27  1996      17 DM         <NA>               37     NA
##  5     23220     1    27  1996       2 DM         F                  36     47
##  6     23221     1    27  1996      18 PF         F                  NA      9
##  7     23222     1    27  1996       1 DM         M                  34     27
##  8     23223     1    27  1996       2 DO         M                  37     66
##  9     23224     1    27  1996      17 DM         F                  39     49
## 10     23225     1    27  1996       2 DM         M                  40     54
## # ... with 11,322 more rows, and 2 more variables: weight_kg <dbl>,
## #   weight_lb <dbl>
```
…
```r
surveys_edited %>%
  group_by(sex, species_id) %>%
  summarize(mean_weight = mean(weight, na.rm = TRUE))
```

```
## `summarise()` regrouping output by 'sex' (override with `.groups` argument)
```

```
## # A tibble: 25 x 3
## # Groups:   sex [3]
##    sex   species_id mean_weight
##    <chr> <chr>            <dbl>
##  1 F     DM               43.6 
##  2 F     DO               49.4 
##  3 F     NL              168.  
##  4 F     OL               32.1 
##  5 F     OT               25.3 
##  6 F     PB               30.2 
##  7 F     PE               22.5 
##  8 F     PF                8.44
##  9 F     PM               22.0 
## 10 F     PP               17.5 
## # ... with 15 more rows
```
…
```r
surveys_edited %>%
  filter(!is.na(weight)) %>%
  group_by(sex, species_id) %>%
  summarize(mean_weight = mean(weight))
```

```
## `summarise()` regrouping output by 'sex' (override with `.groups` argument)
```

```
## # A tibble: 24 x 3
## # Groups:   sex [2]
##    sex   species_id mean_weight
##    <chr> <chr>            <dbl>
##  1 F     DM               43.6 
##  2 F     DO               49.4 
##  3 F     NL              168.  
##  4 F     OL               32.1 
##  5 F     OT               25.3 
##  6 F     PB               30.2 
##  7 F     PE               22.5 
##  8 F     PF                8.44
##  9 F     PM               22.0 
## 10 F     PP               17.5 
## # ... with 14 more rows
```
…
```r
surveys_edited %>%
  filter(!is.na(weight)) %>%
  group_by(sex, species_id) %>%
  summarize(mean_weight = mean(weight)) %>%
  print(n = 15)
```

```
## `summarise()` regrouping output by 'sex' (override with `.groups` argument)
```

```
## # A tibble: 24 x 3
## # Groups:   sex [2]
##    sex   species_id mean_weight
##    <chr> <chr>            <dbl>
##  1 F     DM               43.6 
##  2 F     DO               49.4 
##  3 F     NL              168.  
##  4 F     OL               32.1 
##  5 F     OT               25.3 
##  6 F     PB               30.2 
##  7 F     PE               22.5 
##  8 F     PF                8.44
##  9 F     PM               22.0 
## 10 F     PP               17.5 
## 11 F     RM               11.9 
## 12 F     SH               77.4 
## 13 M     DM               45.1 
## 14 M     DO               48.5 
## 15 M     NL              167.  
## # ... with 9 more rows
```
…
```r
surveys_edited %>%
  filter(!is.na(weight)) %>%
  group_by(sex, species_id) %>%
  summarize(mean_weight = mean(weight),
            min_weight = min(weight))
```

```
## `summarise()` regrouping output by 'sex' (override with `.groups` argument)
```

```
## # A tibble: 24 x 4
## # Groups:   sex [2]
##    sex   species_id mean_weight min_weight
##    <chr> <chr>            <dbl>      <dbl>
##  1 F     DM               43.6          19
##  2 F     DO               49.4          22
##  3 F     NL              168.           63
##  4 F     OL               32.1          21
##  5 F     OT               25.3          11
##  6 F     PB               30.2          12
##  7 F     PE               22.5          11
##  8 F     PF                8.44          5
##  9 F     PM               22.0           9
## 10 F     PP               17.5           8
## # ... with 14 more rows
```
…
```r
surveys_edited %>%
  filter(!is.na(weight)) %>%
  group_by(sex, species_id) %>%
  summarize(mean_weight = mean(weight),
            min_weight = min(weight)) %>%
  arrange(min_weight)
```

```
## `summarise()` regrouping output by 'sex' (override with `.groups` argument)
```

```
## # A tibble: 24 x 4
## # Groups:   sex [2]
##    sex   species_id mean_weight min_weight
##    <chr> <chr>            <dbl>      <dbl>
##  1 M     PP               17.1           4
##  2 F     PF                8.44          5
##  3 M     PF                8.39          5
##  4 F     RM               11.9           7
##  5 M     PM               20.3           7
##  6 M     RM               10.8           7
##  7 F     PP               17.5           8
##  8 M     PE               20.3           8
##  9 F     PM               22.0           9
## 10 F     OT               25.3          11
## # ... with 14 more rows
```
…
```r
surveys_edited %>%
  filter(!is.na(weight)) %>%
  group_by(sex, species_id) %>%
  summarize(mean_weight = mean(weight),
            min_weight = min(weight)) %>%
  arrange(desc(mean_weight))
```

```
## `summarise()` regrouping output by 'sex' (override with `.groups` argument)
```

```
## # A tibble: 24 x 4
## # Groups:   sex [2]
##    sex   species_id mean_weight min_weight
##    <chr> <chr>            <dbl>      <dbl>
##  1 F     NL               168.          63
##  2 M     NL               167.          62
##  3 F     SH                77.4         38
##  4 M     SH                59.1         28
##  5 F     DO                49.4         22
##  6 M     DO                48.5         23
##  7 M     DM                45.1         18
##  8 F     DM                43.6         19
##  9 M     PB                33.8         13
## 10 F     OL                32.1         21
## # ... with 14 more rows
```
…
The previous example shows the use of `count()` to count the number of rows/observations 
for *one* factor (i.e., `sex`). 
If we wanted to count the *combination of factors*, such as `sex` and `species`, 
we would specify the first and the second factor as the arguments of `count()`:




```r
surveys_edited %>%
  count(sex, species_id) 
```

```
## # A tibble: 25 x 3
##    sex   species_id     n
##    <chr> <chr>      <int>
##  1 F     DM          1111
##  2 F     DO           389
##  3 F     NL           134
##  4 F     OL            10
##  5 F     OT           507
##  6 F     PB          1610
##  7 F     PE           102
##  8 F     PF           272
##  9 F     PM           208
## 10 F     PP           973
## # ... with 15 more rows
```
…
```r
surveys_edited %>%
  count(sex, species_id) %>%
  arrange(species_id, desc(n))
```

```
## # A tibble: 25 x 3
##    sex   species_id     n
##    <chr> <chr>      <int>
##  1 M     DM          1558
##  2 F     DM          1111
##  3 <NA>  DM             2
##  4 M     DO           611
##  5 F     DO           389
##  6 F     NL           134
##  7 M     NL            72
##  8 M     OL            18
##  9 F     OL            10
## 10 M     OT           523
## # ... with 15 more rows
```
…
